Final Project: The Olympics
…
## Data Exploration: Summarize Variables

# Gender: Created a bar chart and filled by sex. There are over twice as many male athletes.
olympics %>% group_by(region, Sex) %>% count() 

## # A tibble: 412 x 3
## # Groups:   region, Sex [412]
##    region         Sex       n
##    <chr>          <chr> <int>
##  1 Afghanistan    F         5
##  2 Afghanistan    M       121
##  3 Albania        F        27
##  4 Albania        M        43
##  5 Algeria        F        94
##  6 Algeria        M       457
##  7 American Samoa F         7
##  8 American Samoa M        30
##  9 Andorra        F        42
## 10 Andorra        M       127
## # ... with 402 more rows
…
olympics %>% group_by(region) %>% summarise(mean_age = mean(Age, na.rm=TRUE)) 

## # A tibble: 206 x 2
##    region         mean_age
##    <chr>             <dbl>
##  1 Afghanistan        23.5
##  2 Albania            25.3
##  3 Algeria            24.4
##  4 American Samoa     27.2
##  5 Andorra            23.1
##  6 Angola             24.9
##  7 Antigua            23.2
##  8 Argentina          25.9
##  9 Armenia            24.6
## 10 Aruba              24.9
## # ... with 196 more rows
…
olympics %>% group_by(region) %>% summarise(mean_height = mean(Height, na.rm=TRUE))

## # A tibble: 206 x 2
##    region         mean_height
##    <chr>                <dbl>
##  1 Afghanistan           171.
##  2 Albania               173 
##  3 Algeria               175.
##  4 American Samoa        176.
##  5 Andorra               174.
##  6 Angola                178.
##  7 Antigua               175.
##  8 Argentina             177.
##  9 Armenia               172.
## 10 Aruba                 173.
## # ... with 196 more rows
…
olympics %>% group_by(region) %>% summarise(mean_weight = mean(Weight, na.rm=TRUE))

## # A tibble: 206 x 2
##    region         mean_weight
##    <chr>                <dbl>
##  1 Afghanistan           65.9
##  2 Albania               71.5
##  3 Algeria               68.7
##  4 American Samoa        88.0
##  5 Andorra               70.6
##  6 Angola                74.1
##  7 Antigua               66.2
##  8 Argentina             74.0
##  9 Armenia               73.1
## 10 Aruba                 71.2
## # ... with 196 more rows

# Regions: Created a summary of the number of the athletes from each region
olympics %>% group_by(region) %>% count() 

## # A tibble: 206 x 2
## # Groups:   region [206]
##    region             n
##    <chr>          <int>
##  1 Afghanistan      126
##  2 Albania           70
##  3 Algeria          551
##  4 American Samoa    37
##  5 Andorra          169
##  6 Angola           267
##  7 Antigua          133
##  8 Argentina       3297
##  9 Armenia          221
## 10 Aruba             42
## # ... with 196 more rows
…
